{
    "depthOption": "infinity",
    "excludedCommitMessages": "",
    "excludedRegions": "",
    "excludedRevprop": "",
    "excludedUsers": "",
    "filterChangelog": "false",
    "ignoreDirPropChanges": "false",
    "ignoreExternalsOption": "true",
    "includedRegions": "",
    "local": ".",
    "remote": "",
    "workspaceUpdater": {
        "type" : "UpdateUpdater",
        "params" : {
        } 
    }
}