{
  "cppcheckConfig": {
      "allowNoReport": "true",
      "configGraph": {
          "displayAllErrors": "true",
          "displayErrorSeverity": "true",
          "displayInformationSeverity": "true",
          "displayNoCategorySeverity": "true",
          "displayPerformanceSeverity": "true",
          "displayPortabilitySeverity": "true",
          "displayStyleSeverity": "true",
          "displayWarningSeverity": "true",
          "numBuildsInGraph": "0",
          "xSize": "500",
          "ySize": "200"
      },
      "configSeverityEvaluation": {
          "failureThreshold": "",
          "healthy": "",
          "newFailureThreshold": "",
          "newThreshold": "",
          "severityError": "true",
          "severityInformation": "true",
          "severityNoCategory": "true",
          "severityPerformance": "true",
          "severityPortability": "true",
          "severityStyle": "true",
          "severityWarning": "true",
          "threshold": "",
          "unHealthy": ""
      },
      "ignoreBlankFiles": "true",
      "pattern": ""
  }
}