{
    "doNotFingerprintArtifacts": false,
    "excludes": "",
    "filter": "",
    "parameters": "",
    "project": "",
    "resultVariableSuffix": "",
    "selector": {
        "type" : "StatusBuildSelector",
        "params" : {
          "stable": true
        } 
      },
    "target": ""
}